<svg width="32" height="52" viewBox="0 0 32 52" fill="none" xmlns="http://www.w3.org/2000/svg">
<path d="M27.3801 0L22.76 6.3589L27.3801 12.7178L32 6.3589L27.3801 0Z" fill="url(#paint0_linear_456_1869)"/>
<path d="M6.98918 52.0412L-0.0275879 43.9531V5.17948H10.1994C14.134 5.17948 17.2345 6.30571 19.415 8.5269C20.8011 9.93946 21.7593 11.7548 22.2646 13.9248C23.7835 14.4495 25.1614 15.315 26.2925 16.4545C28.4712 18.6749 29.5758 21.8329 29.5758 25.8406C29.5758 29.9209 28.4718 33.1428 26.2948 35.4166C24.1155 37.6941 21.0146 38.8487 17.0771 38.8487H8.27965V52.0412H6.98918ZM1.40195 43.4918L6.85011 49.7717V13.1071H17.077C18.2691 13.1002 19.4587 13.2182 20.6262 13.459C20.1454 11.9631 19.3929 10.6943 18.3858 9.68333C16.4733 7.76392 13.7191 6.79065 10.1995 6.79065H1.40195V43.4918ZM8.27946 37.2381H17.077C20.5949 37.2381 23.3483 36.2378 25.2607 34.265C27.1756 32.2901 28.1458 29.4557 28.1458 25.8406C28.1458 22.3001 27.176 19.5312 25.2632 17.611C24.488 16.8417 23.5783 16.2205 22.5789 15.778C22.6589 16.4869 22.6988 17.1997 22.6982 17.913C22.6982 21.9932 21.5942 25.2151 19.4172 27.4891C17.2378 29.7666 14.1369 30.9212 10.1994 30.9212H8.27965L8.27946 37.2381ZM8.27946 29.3105H10.1994C13.7174 29.3105 16.4708 28.3102 18.3831 26.3374C20.298 24.3624 21.2683 21.528 21.2683 17.9129C21.2697 17.0131 21.1969 16.1147 21.0507 15.2269C19.7555 14.8778 18.4186 14.7067 17.077 14.7182H8.27965L8.27946 29.3105Z" fill="url(#paint1_linear_456_1869)"/>
<defs>
<linearGradient id="paint0_linear_456_1869" x1="31.9841" y1="0.0364282" x2="19.9428" y2="8.7834" gradientUnits="userSpaceOnUse">
<stop stop-color="#FCF3D1"/>
<stop offset="1" stop-color="#D7C39A"/>
</linearGradient>
<linearGradient id="paint1_linear_456_1869" x1="29.5247" y1="5.3137" x2="-12.6039" y2="31.9226" gradientUnits="userSpaceOnUse">
<stop stop-color="#FCF3D1"/>
<stop offset="1" stop-color="#D7C39A"/>
</linearGradient>
</defs>
</svg>