<svg width="20" height="20" viewBox="0 0 20 20" fill="none" xmlns="http://www.w3.org/2000/svg">
<g clip-path="url(#clip0_455_3247)">
<path d="M11.9885 1.36286C12.0156 1.26116 12.0625 1.1658 12.1265 1.08223C12.1905 0.998664 12.2703 0.928529 12.3614 0.875838C12.4525 0.823147 12.5531 0.788933 12.6575 0.775153C12.7618 0.761373 12.8679 0.768297 12.9695 0.79553C14.464 1.19737 15.8266 1.98487 16.9209 3.07914C18.0151 4.17341 18.8026 5.53603 19.2045 7.03048C19.2328 7.13251 19.2406 7.23914 19.2275 7.34421C19.2144 7.44928 19.1805 7.5507 19.128 7.64262C19.0754 7.73454 19.0052 7.81513 18.9213 7.87974C18.8374 7.94434 18.7415 7.99168 18.6392 8.01901C18.5369 8.04635 18.4302 8.05313 18.3253 8.03898C18.2203 8.02483 18.1192 7.99003 18.0278 7.93657C17.9364 7.88312 17.8565 7.81208 17.7927 7.72756C17.729 7.64304 17.6826 7.54672 17.6562 7.44416C17.3275 6.22165 16.6833 5.10698 15.7882 4.21183C14.893 3.31668 13.7784 2.67248 12.5558 2.34377C12.3505 2.28892 12.1754 2.15476 12.069 1.97081C11.9626 1.78685 11.9337 1.56817 11.9885 1.36286ZM11.7261 5.44057C12.4052 5.62321 13.0244 5.9811 13.5216 6.47839C14.0189 6.97568 14.3767 7.5949 14.5593 8.27402C14.6155 8.47784 14.75 8.65119 14.9335 8.7563C15.1169 8.8614 15.3345 8.88975 15.5387 8.83516C15.743 8.78057 15.9174 8.64747 16.0239 8.46486C16.1305 8.28225 16.1606 8.06493 16.1076 7.86024C15.8519 6.90918 15.3507 6.04201 14.6543 5.34561C13.958 4.64922 13.0908 4.14805 12.1398 3.89232C11.9352 3.8398 11.7182 3.87014 11.5359 3.97674C11.3536 4.08334 11.2208 4.25759 11.1663 4.46161C11.1118 4.66562 11.14 4.88291 11.2448 5.06622C11.3497 5.24954 11.5226 5.38407 11.7261 5.44057ZM19.9885 15.0998C19.8145 16.4532 19.1537 17.697 18.1297 18.5988C17.1056 19.5005 15.7882 19.9986 14.4237 20C6.47044 20 0 13.5296 0 5.57629C0.00136899 4.21178 0.499454 2.89444 1.4012 1.87037C2.30295 0.846297 3.54669 0.185541 4.90005 0.0115409C5.24443 -0.0299568 5.593 0.0411135 5.89364 0.214129C6.19428 0.387144 6.43085 0.652811 6.568 0.971419L8.58051 5.66694C8.6849 5.90983 8.72746 6.17481 8.70438 6.43817C8.68131 6.70154 8.59332 6.95508 8.44829 7.17612L6.78205 9.7221L6.78185 9.7223C7.53425 11.2521 8.77507 12.4874 10.3081 13.2331L12.8166 11.5609C13.0382 11.4126 13.2934 11.3221 13.559 11.2977C13.8246 11.2733 14.092 11.3158 14.337 11.4213L19.0285 13.4319C19.3472 13.569 19.6129 13.8055 19.7859 14.1062C19.959 14.4068 20.03 14.7554 19.9885 15.0998ZM18.3985 14.899L13.7057 12.8944L11.1981 14.5666C10.9676 14.7205 10.7011 14.8119 10.4246 14.832C10.1482 14.852 9.87129 14.7999 9.62102 14.6808C7.75717 13.7776 6.24925 12.2765 5.33757 10.4168C5.21784 10.1681 5.16444 9.89256 5.18256 9.61706C5.20067 9.34157 5.28967 9.07543 5.44094 8.84446L7.10728 6.29828L5.09498 1.60286C4.12963 1.72816 3.24288 2.20048 2.60024 2.93164C1.9576 3.66281 1.603 4.60285 1.60263 5.57629C1.60648 8.97547 2.9585 12.2343 5.36209 14.6379C7.76567 17.0415 11.0245 18.3935 14.4237 18.3974C15.3981 18.3966 16.339 18.0411 17.0705 17.3973C17.8019 16.7535 18.274 15.8655 18.3985 14.899Z" fill="url(#paint0_linear_455_3247)"/>
</g>
<defs>
<linearGradient id="paint0_linear_455_3247" x1="10" y1="0" x2="9.99665" y2="20" gradientUnits="userSpaceOnUse">
<stop stop-color="#FCF3D1"/>
<stop offset="1" stop-color="#D7C39A"/>
</linearGradient>
<clipPath id="clip0_455_3247">
<rect width="20" height="20" fill="white"/>
</clipPath>
</defs>
</svg>
