<svg width="50" height="50" viewBox="0 0 50 50" fill="none" xmlns="http://www.w3.org/2000/svg">
<path d="M47.9652 25C49.089 25 50.0086 25.9126 49.9172 27.0327C49.5724 31.2607 48.1559 35.3436 45.7867 38.8893C43.0397 43.0005 39.1352 46.2048 34.5671 48.097C29.9989 49.9892 24.9723 50.4843 20.1227 49.5196C15.2732 48.555 10.8186 46.174 7.32233 42.6777C3.82602 39.1814 1.445 34.7268 0.480368 29.8773C-0.484263 25.0277 0.0108209 20.0011 1.90301 15.4329C3.7952 10.8648 6.99952 6.96029 11.1107 4.21326C14.6564 1.84412 18.7393 0.42764 22.9673 0.082758C24.0874 -0.00860874 25 0.911033 25 2.03485C25 3.15866 24.0868 4.05944 22.9683 4.16852C19.5463 4.50226 16.2479 5.67531 13.3717 7.59709C9.92978 9.89694 7.24709 13.1658 5.66292 16.9903C4.07876 20.8148 3.66427 25.0232 4.47187 29.0833C5.27947 33.1434 7.27288 36.8728 10.2 39.8C13.1272 42.7271 16.8566 44.7205 20.9167 45.5281C24.9768 46.3357 29.1852 45.9212 33.0097 44.3371C36.8342 42.7529 40.1031 40.0702 42.4029 36.6283C44.3247 33.7521 45.4977 30.4537 45.8315 27.0317C45.9406 25.9132 46.8413 25 47.9652 25Z" fill="#FCF3D1"/>
<path d="M27.7219 2.19672C27.8551 1.08083 28.8702 0.275832 29.9716 0.499317C32.6965 1.05224 35.3103 2.05595 37.7049 3.46894C38.6728 4.04006 38.8882 5.31759 38.2402 6.23583C37.5923 7.15407 36.3269 7.36359 35.3501 6.80786C33.52 5.76665 31.543 5.0075 29.4864 4.55617C28.3887 4.31528 27.5887 3.31262 27.7219 2.19672Z" fill="#2C817C"/>
<path d="M40.1861 7.77265C40.9292 6.92962 42.2219 6.84316 43.0017 7.65238C43.4291 8.09597 43.8401 8.5552 44.2336 9.02915C44.9515 9.89375 44.7225 11.1689 43.8024 11.8141C42.8823 12.4594 41.6205 12.229 40.889 11.3758C40.6971 11.152 40.5004 10.9322 40.2992 10.7167C39.5323 9.89523 39.4429 8.61568 40.1861 7.77265Z" fill="#2C817C"/>
</svg>
